Midterm Assignemnt, ME314 2019
…
# check how many weeks are included in each year
count_by_years <- group_by(Weekly, Year) %>% 
                                    summarise(n = n())

count_by_years

## # A tibble: 21 x 2
##     Year     n
##    <dbl> <int>
##  1  1990    47
##  2  1991    52
##  3  1992    52
##  4  1993    52
##  5  1994    52
##  6  1995    52
##  7  1996    53
##  8  1997    52
##  9  1998    52
## 10  1999    52
## #  with 11 more rows
…
